[{"pk": 7, "model": "conf.resultstring", "fields": {"indicates": "pos", "match_type": "istartswith", "applies_to_all": true, "value": "confirm"}}, 
{"pk": 5, "model": "conf.resultstring", "fields": {"indicates": "pos", "match_type": "istartswith", "applies_to_all": true, "value": "detec"}}, 
{"pk": 3, "model": "conf.resultstring", "fields": {"indicates": "ind", "match_type": "istartswith", "applies_to_all": true, "value": "indeterminate"}}, 
{"pk": 2, "model": "conf.resultstring", "fields": {"indicates": "neg", "match_type": "istartswith", "applies_to_all": true, "value": "neg"}}, {"pk": 8, "model": "conf.resultstring", "fields": {"indicates": "neg", "match_type": "istartswith", "applies_to_all": true, "value": "non"}},
 {"pk": 9, "model": "conf.resultstring", "fields": {"indicates": "neg", "match_type": "istartswith", "applies_to_all": true, "value": "not det"}}, 
 {"pk": 11, "model": "conf.resultstring", "fields": {"indicates": "ind", "match_type": "istartswith", "applies_to_all": true, "value": "not done"}}, {"pk": 10, "model": "conf.resultstring", "fields": {"indicates": "neg", "match_type": "istartswith", "applies_to_all": true, "value": "nr"}}, {"pk": 4, "model": "conf.resultstring", "fields": {"indicates": "pos", "match_type": "istartswith", "applies_to_all": true, "value": "pos"}}, {"pk": 6, "model": "conf.resultstring", "fields": {"indicates": "pos", "match_type": "istartswith", "applies_to_all": true, "value": "reactiv"}}, {"pk": 12, "model": "conf.resultstring", "fields": {"indicates": "ind", "match_type": "istartswith", "applies_to_all": true, "value": "tnp"}},
{"pk": "pertussis", "model": "conf.conditionconfig", "fields": {"med_days_after": 0, "dx_code_days_before": 0, "lab_days_after": 0, "ext_var_days_after": 28, "lab_days_before": 0, "initial_status": "AR", "reinfection_days": 0, "url_name": "nodis_pertussis_detail", "dx_code_days_after": 0, "ext_var_days_before": 28, "med_days_before": 0}}, {"pk": "gonorrhea", "model": "conf.conditionconfig", "fields": {"med_days_after": 14, "dx_code_days_before": 14, "lab_days_after": 30, "ext_var_days_after": 28, "lab_days_before": 30, "initial_status": "AR", "reinfection_days": 180, "url_name": "", "dx_code_days_after": 14, "ext_var_days_before": 28, "med_days_before": 7}}, {"pk": "syphilis", "model": "conf.conditionconfig", "fields": {"med_days_after": 28, "dx_code_days_before": 28, "lab_days_after": 0, "ext_var_days_after": 28, "lab_days_before": 0, "initial_status": "AR", "reinfection_days": 0, "url_name": null, "dx_code_days_after": 28, "ext_var_days_before": 28, "med_days_before": 28}}, {"pk": "giardiasis", "model": "conf.conditionconfig", "fields": {"med_days_after": 0, "dx_code_days_before": 0, "lab_days_after": 0, "ext_var_days_after": 28, "lab_days_before": 0, "initial_status": "AR", "reinfection_days": 0, "url_name": null, "dx_code_days_after": 0, "ext_var_days_before": 28, "med_days_before": 0}}, {"pk": "lyme", "model": "conf.conditionconfig", "fields": {"med_days_after": 30, "dx_code_days_before": 30, "lab_days_after": 0, "ext_var_days_after": 28, "lab_days_before": 30, "initial_status": "AR", "reinfection_days": 0, "url_name": null, "dx_code_days_after": 30, "ext_var_days_before": 28, "med_days_before": 30}}, {"pk": "asthma", "model": "conf.conditionconfig", "fields": {"med_days_after": 0, "dx_code_days_before": 0, "lab_days_after": 0, "ext_var_days_after": 28, "lab_days_before": 0, "initial_status": "AR", "reinfection_days": 0, "url_name": null, "dx_code_days_after": 0, "ext_var_days_before": 28, "med_days_before": 0}}, {"pk": "ili", "model": "conf.conditionconfig", "fields": {"med_days_after": 0, "dx_code_days_before": 0, "lab_days_after": 0, "ext_var_days_after": 28, "lab_days_before": 0, "initial_status": "AR", "reinfection_days": 0, "url_name": null, "dx_code_days_after": 0, "ext_var_days_before": 28, "med_days_before": 0}}, {"pk": "diabetes", "model": "conf.conditionconfig", "fields": {"med_days_after": 0, "dx_code_days_before": 0, "lab_days_after": 0, "ext_var_days_after": 28, "lab_days_before": 0, "initial_status": "AR", "reinfection_days": 0, "url_name": null, "dx_code_days_after": 0, "ext_var_days_before": 28, "med_days_before": 0}}, {"pk": "diabetes:gestational", "model": "conf.conditionconfig", "fields": {"med_days_after": 0, "dx_code_days_before": 0, "lab_days_after": 0, "ext_var_days_after": 28, "lab_days_before": 0, "initial_status": "AR", "reinfection_days": 0, "url_name": null, "dx_code_days_after": 0, "ext_var_days_before": 28, "med_days_before": 0}}, {"pk": "diabetes:prediabetes", "model": "conf.conditionconfig", "fields": {"med_days_after": 0, "dx_code_days_before": 0, "lab_days_after": 0, "ext_var_days_after": 28, "lab_days_before": 0, "initial_status": "AR", "reinfection_days": 0, "url_name": null, "dx_code_days_after": 0, "ext_var_days_before": 28, "med_days_before": 0}}, {"pk": "diabetes:type-1", "model": "conf.conditionconfig", "fields": {"med_days_after": 0, "dx_code_days_before": 0, "lab_days_after": 0, "ext_var_days_after": 28, "lab_days_before": 0, "initial_status": "AR", "reinfection_days": 0, "url_name": null, "dx_code_days_after": 0, "ext_var_days_before": 28, "med_days_before": 0}}, {"pk": "diabetes:type-2", "model": "conf.conditionconfig", "fields": {"med_days_after": 0, "dx_code_days_before": 0, "lab_days_after": 0, "ext_var_days_after": 28, "lab_days_before": 0, "initial_status": "AR", "reinfection_days": 0, "url_name": null, "dx_code_days_after": 0, "ext_var_days_before": 28, "med_days_before": 0}}, {"pk": "hepatitis_a:acute", "model": "conf.conditionconfig", "fields": {"med_days_after": 0, "dx_code_days_before": 14, "lab_days_after": 30, "ext_var_days_after": 28, "lab_days_before": 30, "initial_status": "AR", "reinfection_days": 0, "url_name": null, "dx_code_days_after": 14, "ext_var_days_before": 28, "med_days_before": 0}}, {"pk": "hepatitis_b:acute", "model": "conf.conditionconfig", "fields": {"med_days_after": 0, "dx_code_days_before": 14, "lab_days_after": 14, "ext_var_days_after": 28, "lab_days_before": 14, "initial_status": "AR", "reinfection_days": 0, "url_name": null, "dx_code_days_after": 14, "ext_var_days_before": 28, "med_days_before": 0}}, {"pk": "hepatitis_c:acute", "model": "conf.conditionconfig", "fields": {"med_days_after": 0, "dx_code_days_before": 14, "lab_days_after": 28, "ext_var_days_after": 28, "lab_days_before": 28, "initial_status": "AR", "reinfection_days": 0, "url_name": null, "dx_code_days_after": 14, "ext_var_days_before": 28, "med_days_before": 0}}, {"pk": "pelvic_inflammatory_disease", "model": "conf.conditionconfig", "fields": {"med_days_after": 30, "dx_code_days_before": 0, "lab_days_after": 0, "ext_var_days_after": 28, "lab_days_before": 0, "initial_status": "AR", "reinfection_days": 0, "url_name": null, "dx_code_days_after": 0, "ext_var_days_before": 28, "med_days_before": 30}}, {"pk": "tuberculosis", "model": "conf.conditionconfig", "fields": {"med_days_after": 60, "dx_code_days_before": 30, "lab_days_after": 60, "ext_var_days_after": 28, "lab_days_before": 60, "initial_status": "AR", "reinfection_days": 0, "url_name": null, "dx_code_days_after": 30, "ext_var_days_before": 28, "med_days_before": 60}}, {"pk": "chlamydia", "model": "conf.conditionconfig", "fields": {"med_days_after": 14, "dx_code_days_before": 14, "lab_days_after": 28, "ext_var_days_after": 28, "lab_days_before": 28, "initial_status": "AR", "reinfection_days": 180, "url_name": "", "dx_code_days_after": 14, "ext_var_days_before": 28, "med_days_before": 7}},
{"pk": 164, "model": "conf.reportabledx_code", "fields": {"notes": "", "condition": "syphilis", "dx_code": "icd9:095.0"}}, {"pk": 167, "model": "conf.reportabledx_code", "fields": {"notes": "", "condition": "syphilis", "dx_code": "icd9:095.3"}}, {"pk": 170, "model": "conf.reportabledx_code", "fields": {"notes": "", "condition": "syphilis", "dx_code": "icd9:095.6"}}, {"pk": 173, "model": "conf.reportabledx_code", "fields": {"notes": "", "condition": "syphilis", "dx_code": "icd9:095.9"}}, {"pk": 176, "model": "conf.reportabledx_code", "fields": {"notes": "", "condition": "syphilis", "dx_code": "icd9:090.7"}}, {"pk": 179, "model": "conf.reportabledx_code", "fields": {"notes": "", "condition": "syphilis", "dx_code": "icd9:090.49"}}, {"pk": 182, "model": "conf.reportabledx_code", "fields": {"notes": "", "condition": "syphilis", "dx_code": "icd9:090.41"}}, {"pk": 185, "model": "conf.reportabledx_code", "fields": {"notes": "", "condition": "syphilis", "dx_code": "icd9:090.3"}}, {"pk": 188, "model": "conf.reportabledx_code", "fields": {"notes": "", "condition": "lyme", "dx_code": "icd9:711.80"}}, {"pk": 191, "model": "conf.reportabledx_code", "fields": {"notes": "", "condition": "lyme", "dx_code": "icd9:711.83"}}, {"pk": 194, "model": "conf.reportabledx_code", "fields": {"notes": "", "condition": "lyme", "dx_code": "icd9:711.86"}}, {"pk": 197, "model": "conf.reportabledx_code", "fields": {"notes": "", "condition": "lyme", "dx_code": "icd9:711.89"}}, {"pk": 200, "model": "conf.reportabledx_code", "fields": {"notes": "", "condition": "hepatitis_a:acute", "dx_code": "icd9:787.0"}}, {"pk": 135, "model": "conf.reportabledx_code", "fields": {"notes": "", "condition": "syphilis", "dx_code": "icd9:097"}}, {"pk": 137, "model": "conf.reportabledx_code", "fields": {"notes": "", "condition": "syphilis", "dx_code": "icd9:097.1"}}, {"pk": 141, "model": "conf.reportabledx_code", "fields": {"notes": "", "condition": "syphilis", "dx_code": "icd9:091.81"}}, {"pk": 143, "model": "conf.reportabledx_code", "fields": {"notes": "", "condition": "syphilis", "dx_code": "icd9:091.50"}}, {"pk": 145, "model": "conf.reportabledx_code", "fields": {"notes": "", "condition": "syphilis", "dx_code": "icd9:091.52"}}, {"pk": 147, "model": "conf.reportabledx_code", "fields": {"notes": "", "condition": "syphilis", "dx_code": "icd9:092"}}, {"pk": 149, "model": "conf.reportabledx_code", "fields": {"notes": "", "condition": "syphilis", "dx_code": "icd9:093"}}, {"pk": 151, "model": "conf.reportabledx_code", "fields": {"notes": "", "condition": "syphilis", "dx_code": "icd9:093.0"}}, {"pk": 153, "model": "conf.reportabledx_code", "fields": {"notes": "", "condition": "syphilis", "dx_code": "icd9:093.2"}}, {"pk": 155, "model": "conf.reportabledx_code", "fields": {"notes": "", "condition": "syphilis", "dx_code": "icd9:093.21"}}, {"pk": 157, "model": "conf.reportabledx_code", "fields": {"notes": "", "condition": "syphilis", "dx_code": "icd9:093.23"}}, {"pk": 159, "model": "conf.reportabledx_code", "fields": {"notes": "", "condition": "syphilis", "dx_code": "icd9:093.8"}}, {"pk": 161, "model": "conf.reportabledx_code", "fields": {"notes": "", "condition": "syphilis", "dx_code": "icd9:093.82"}}, {"pk": 163, "model": "conf.reportabledx_code", "fields": {"notes": "", "condition": "syphilis", "dx_code": "icd9:093.9"}}, {"pk": 4, "model": "conf.reportabledx_code", "fields": {"notes": "renal hypertension", "condition": "chlamydia", "dx_code": "icd9:642.11"}}, {"pk": 5, "model": "conf.reportabledx_code", "fields": {"notes": "", "condition": "chlamydia", "dx_code": "icd9:788.7"}}, {"pk": 6, "model": "conf.reportabledx_code", "fields": {"notes": "", "condition": "chlamydia", "dx_code": "icd9:099.40"}}, {"pk": 7, "model": "conf.reportabledx_code", "fields": {"notes": "", "condition": "chlamydia", "dx_code": "icd9:780.6"}}, {"pk": 8, "model": "conf.reportabledx_code", "fields": {"notes": "", "condition": "chlamydia", "dx_code": "icd9:597.80"}}, {"pk": 9, "model": "conf.reportabledx_code", "fields": {"notes": "", "condition": "chlamydia", "dx_code": "icd9:616.0"}}, {"pk": 10, "model": "conf.reportabledx_code", "fields": {"notes": "", "condition": "chlamydia", "dx_code": "icd9:616.10"}}, {"pk": 11, "model": "conf.reportabledx_code", "fields": {"notes": "", "condition": "chlamydia", "dx_code": "icd9:623.5"}}, {"pk": 12, "model": "conf.reportabledx_code", "fields": {"notes": "", "condition": "chlamydia", "dx_code": "icd9:789.07"}}, {"pk": 13, "model": "conf.reportabledx_code", "fields": {"notes": "", "condition": "chlamydia", "dx_code": "icd9:789.04"}}, {"pk": 14, "model": "conf.reportabledx_code", "fields": {"notes": "", "condition": "chlamydia", "dx_code": "icd9:789.09"}}, {"pk": 15, "model": "conf.reportabledx_code", "fields": {"notes": "", "condition": "chlamydia", "dx_code": "icd9:789.03"}}, {"pk": 16, "model": "conf.reportabledx_code", "fields": {"notes": "", "condition": "chlamydia", "dx_code": "icd9:789.00"}}, {"pk": 43, "model": "conf.reportabledx_code", "fields": {"notes": "", "condition": "syphilis", "dx_code": "icd9:094.0"}}, {"pk": 44, "model": "conf.reportabledx_code", "fields": {"notes": "", "condition": "syphilis", "dx_code": "icd9:094.1"}}, {"pk": 45, "model": "conf.reportabledx_code", "fields": {"notes": "", "condition": "syphilis", "dx_code": "icd9:094.2"}}, {"pk": 46, "model": "conf.reportabledx_code", "fields": {"notes": "", "condition": "syphilis", "dx_code": "icd9:094.3"}}, {"pk": 47, "model": "conf.reportabledx_code", "fields": {"notes": "", "condition": "syphilis", "dx_code": "icd9:094.8"}}, {"pk": 48, "model": "conf.reportabledx_code", "fields": {"notes": "", "condition": "syphilis", "dx_code": "icd9:094.81"}}, {"pk": 49, "model": "conf.reportabledx_code", "fields": {"notes": "", "condition": "syphilis", "dx_code": "icd9:094.82"}}, {"pk": 165, "model": "conf.reportabledx_code", "fields": {"notes": "", "condition": "syphilis", "dx_code": "icd9:095.1"}}, {"pk": 168, "model": "conf.reportabledx_code", "fields": {"notes": "", "condition": "syphilis", "dx_code": "icd9:095.4"}}, {"pk": 171, "model": "conf.reportabledx_code", "fields": {"notes": "", "condition": "syphilis", "dx_code": "icd9:095.7"}}, {"pk": 174, "model": "conf.reportabledx_code", "fields": {"notes": "", "condition": "syphilis", "dx_code": "icd9:090.0"}}, {"pk": 177, "model": "conf.reportabledx_code", "fields": {"notes": "", "condition": "syphilis", "dx_code": "icd9:090.6"}}, {"pk": 180, "model": "conf.reportabledx_code", "fields": {"notes": "", "condition": "syphilis", "dx_code": "icd9:090.42"}}, {"pk": 183, "model": "conf.reportabledx_code", "fields": {"notes": "", "condition": "syphilis", "dx_code": "icd9:090"}}, {"pk": 186, "model": "conf.reportabledx_code", "fields": {"notes": "", "condition": "syphilis", "dx_code": "icd9:090.2"}}, {"pk": 189, "model": "conf.reportabledx_code", "fields": {"notes": "", "condition": "lyme", "dx_code": "icd9:711.81"}}, {"pk": 192, "model": "conf.reportabledx_code", "fields": {"notes": "", "condition": "lyme", "dx_code": "icd9:711.84"}}, {"pk": 195, "model": "conf.reportabledx_code", "fields": {"notes": "", "condition": "lyme", "dx_code": "icd9:711.87"}}, {"pk": 198, "model": "conf.reportabledx_code", "fields": {"notes": "", "condition": "lyme", "dx_code": "icd9:780.60"}}, {"pk": 201, "model": "conf.reportabledx_code", "fields": {"notes": "", "condition": "hepatitis_b:acute", "dx_code": "icd9:787.0"}}, {"pk": 136, "model": "conf.reportabledx_code", "fields": {"notes": "", "condition": "syphilis", "dx_code": "icd9:097.0"}}, {"pk": 138, "model": "conf.reportabledx_code", "fields": {"notes": "", "condition": "syphilis", "dx_code": "icd9:097.9"}}, {"pk": 140, "model": "conf.reportabledx_code", "fields": {"notes": "", "condition": "syphilis", "dx_code": "icd9:091.69"}}, {"pk": 142, "model": "conf.reportabledx_code", "fields": {"notes": "", "condition": "syphilis", "dx_code": "icd9:091.82"}}, {"pk": 144, "model": "conf.reportabledx_code", "fields": {"notes": "", "condition": "syphilis", "dx_code": "icd9:091.51"}}, {"pk": 146, "model": "conf.reportabledx_code", "fields": {"notes": "", "condition": "syphilis", "dx_code": "icd9:091.61"}}, {"pk": 148, "model": "conf.reportabledx_code", "fields": {"notes": "", "condition": "syphilis", "dx_code": "icd9:091.89"}}, {"pk": 150, "model": "conf.reportabledx_code", "fields": {"notes": "", "condition": "syphilis", "dx_code": "icd9:091"}}, {"pk": 152, "model": "conf.reportabledx_code", "fields": {"notes": "", "condition": "syphilis", "dx_code": "icd9:093.1"}}, {"pk": 154, "model": "conf.reportabledx_code", "fields": {"notes": "", "condition": "syphilis", "dx_code": "icd9:093.20"}}, {"pk": 156, "model": "conf.reportabledx_code", "fields": {"notes": "", "condition": "syphilis", "dx_code": "icd9:093.22"}}, {"pk": 158, "model": "conf.reportabledx_code", "fields": {"notes": "", "condition": "syphilis", "dx_code": "icd9:093.24"}}, {"pk": 160, "model": "conf.reportabledx_code", "fields": {"notes": "", "condition": "syphilis", "dx_code": "icd9:093.81"}}, {"pk": 162, "model": "conf.reportabledx_code", "fields": {"notes": "", "condition": "syphilis", "dx_code": "icd9:093.89"}}, {"pk": 50, "model": "conf.reportabledx_code", "fields": {"notes": "", "condition": "syphilis", "dx_code": "icd9:094.83"}}, {"pk": 51, "model": "conf.reportabledx_code", "fields": {"notes": "", "condition": "syphilis", "dx_code": "icd9:094.84"}}, {"pk": 52, "model": "conf.reportabledx_code", "fields": {"notes": "", "condition": "syphilis", "dx_code": "icd9:094.85"}}, {"pk": 53, "model": "conf.reportabledx_code", "fields": {"notes": "", "condition": "syphilis", "dx_code": "icd9:094.86"}}, {"pk": 54, "model": "conf.reportabledx_code", "fields": {"notes": "", "condition": "syphilis", "dx_code": "icd9:094.87"}}, {"pk": 55, "model": "conf.reportabledx_code", "fields": {"notes": "", "condition": "syphilis", "dx_code": "icd9:094.89"}}, {"pk": 56, "model": "conf.reportabledx_code", "fields": {"notes": "", "condition": "syphilis", "dx_code": "icd9:094.9"}}, {"pk": 57, "model": "conf.reportabledx_code", "fields": {"notes": "", "condition": "tuberculosis", "dx_code": "icd9:795.5"}}, {"pk": 58, "model": "conf.reportabledx_code", "fields": {"notes": "", "condition": "tuberculosis", "dx_code": "icd9:786.2"}}, {"pk": 59, "model": "conf.reportabledx_code", "fields": {"notes": "", "condition": "tuberculosis", "dx_code": "icd9:783.2"}}, {"pk": 60, "model": "conf.reportabledx_code", "fields": {"notes": "", "condition": "tuberculosis", "dx_code": "icd9:783.21"}}, {"pk": 61, "model": "conf.reportabledx_code", "fields": {"notes": "", "condition": "tuberculosis", "dx_code": "icd9:780.6"}}, {"pk": 62, "model": "conf.reportabledx_code", "fields": {"notes": "", "condition": "tuberculosis", "dx_code": "icd9:786.50"}}, {"pk": 63, "model": "conf.reportabledx_code", "fields": {"notes": "", "condition": "tuberculosis", "dx_code": "icd9:786.51"}}, {"pk": 64, "model": "conf.reportabledx_code", "fields": {"notes": "", "condition": "tuberculosis", "dx_code": "icd9:786.52"}}, {"pk": 65, "model": "conf.reportabledx_code", "fields": {"notes": "", "condition": "tuberculosis", "dx_code": "icd9:786.59"}}, {"pk": 66, "model": "conf.reportabledx_code", "fields": {"notes": "", "condition": "lyme", "dx_code": "icd9:782.1"}}, {"pk": 67, "model": "conf.reportabledx_code", "fields": {"notes": "", "condition": "lyme", "dx_code": "icd9:711.8"}}, {"pk": 68, "model": "conf.reportabledx_code", "fields": {"notes": "", "condition": "lyme", "dx_code": "icd9:320.7"}}, {"pk": 69, "model": "conf.reportabledx_code", "fields": {"notes": "", "condition": "lyme", "dx_code": "icd9:351.0"}}, {"pk": 70, "model": "conf.reportabledx_code", "fields": {"notes": "", "condition": "lyme", "dx_code": "icd9:723.4"}}, {"pk": 71, "model": "conf.reportabledx_code", "fields": {"notes": "", "condition": "lyme", "dx_code": "icd9:724.4"}}, {"pk": 72, "model": "conf.reportabledx_code", "fields": {"notes": "", "condition": "lyme", "dx_code": "icd9:422.0"}}, {"pk": 73, "model": "conf.reportabledx_code", "fields": {"notes": "", "condition": "lyme", "dx_code": "icd9:426.0"}}, {"pk": 74, "model": "conf.reportabledx_code", "fields": {"notes": "", "condition": "lyme", "dx_code": "icd9:426.12"}}, {"pk": 75, "model": "conf.reportabledx_code", "fields": {"notes": "", "condition": "lyme", "dx_code": "icd9:426.13"}}, {"pk": 76, "model": "conf.reportabledx_code", "fields": {"notes": "", "condition": "lyme", "dx_code": "icd9:780.6"}}, {"pk": 77, "model": "conf.reportabledx_code", "fields": {"notes": "", "condition": "hepatitis_a:acute", "dx_code": "icd9:780.6"}}, {"pk": 78, "model": "conf.reportabledx_code", "fields": {"notes": "", "condition": "hepatitis_a:acute", "dx_code": "icd9:782.4"}}, {"pk": 79, "model": "conf.reportabledx_code", "fields": {"notes": "", "condition": "hepatitis_a:acute", "dx_code": "icd9:783.0"}}, {"pk": 80, "model": "conf.reportabledx_code", "fields": {"notes": "", "condition": "hepatitis_a:acute", "dx_code": "icd9:780.79"}}, {"pk": 81, "model": "conf.reportabledx_code", "fields": {"notes": "", "condition": "hepatitis_a:acute", "dx_code": "icd9:789.09"}}, {"pk": 82, "model": "conf.reportabledx_code", "fields": {"notes": "", "condition": "hepatitis_a:acute", "dx_code": "icd9:789.07"}}, {"pk": 83, "model": "conf.reportabledx_code", "fields": {"notes": "", "condition": "hepatitis_a:acute", "dx_code": "icd9:789.06"}}, {"pk": 84, "model": "conf.reportabledx_code", "fields": {"notes": "", "condition": "hepatitis_a:acute", "dx_code": "icd9:789.05"}}, {"pk": 85, "model": "conf.reportabledx_code", "fields": {"notes": "", "condition": "hepatitis_a:acute", "dx_code": "icd9:789.04"}}, {"pk": 86, "model": "conf.reportabledx_code", "fields": {"notes": "", "condition": "hepatitis_a:acute", "dx_code": "icd9:789.03"}}, {"pk": 87, "model": "conf.reportabledx_code", "fields": {"notes": "", "condition": "hepatitis_a:acute", "dx_code": "icd9:789.02"}}, {"pk": 88, "model": "conf.reportabledx_code", "fields": {"notes": "", "condition": "hepatitis_a:acute", "dx_code": "icd9:789.01"}}, {"pk": 89, "model": "conf.reportabledx_code", "fields": {"notes": "", "condition": "hepatitis_a:acute", "dx_code": "icd9:789.00"}}, {"pk": 90, "model": "conf.reportabledx_code", "fields": {"notes": "", "condition": "hepatitis_a:acute", "dx_code": "icd9:789.0"}}, {"pk": 91, "model": "conf.reportabledx_code", "fields": {"notes": "", "condition": "hepatitis_a:acute", "dx_code": "icd9:787.01"}}, {"pk": 92, "model": "conf.reportabledx_code", "fields": {"notes": "", "condition": "hepatitis_a:acute", "dx_code": "icd9:787.02"}}, {"pk": 93, "model": "conf.reportabledx_code", "fields": {"notes": "", "condition": "hepatitis_a:acute", "dx_code": "icd9:787.03"}}, {"pk": 94, "model": "conf.reportabledx_code", "fields": {"notes": "", "condition": "hepatitis_a:acute", "dx_code": "icd9:787.91"}}, {"pk": 95, "model": "conf.reportabledx_code", "fields": {"notes": "", "condition": "hepatitis_c:acute", "dx_code": "icd9:780.6"}}, {"pk": 96, "model": "conf.reportabledx_code", "fields": {"notes": "", "condition": "hepatitis_b:acute", "dx_code": "icd9:780.6"}}, {"pk": 97, "model": "conf.reportabledx_code", "fields": {"notes": "", "condition": "hepatitis_b:acute", "dx_code": "icd9:782.4"}}, {"pk": 98, "model": "conf.reportabledx_code", "fields": {"notes": "", "condition": "hepatitis_b:acute", "dx_code": "icd9:787.01"}}, {"pk": 99, "model": "conf.reportabledx_code", "fields": {"notes": "", "condition": "hepatitis_b:acute", "dx_code": "icd9:787.02"}}, {"pk": 100, "model": "conf.reportabledx_code", "fields": {"notes": "", "condition": "hepatitis_b:acute", "dx_code": "icd9:787.03"}}, {"pk": 101, "model": "conf.reportabledx_code", "fields": {"notes": "", "condition": "hepatitis_b:acute", "dx_code": "icd9:787.91"}}, {"pk": 102, "model": "conf.reportabledx_code", "fields": {"notes": "", "condition": "hepatitis_b:acute", "dx_code": "icd9:789.0"}}, {"pk": 103, "model": "conf.reportabledx_code", "fields": {"notes": "", "condition": "hepatitis_b:acute", "dx_code": "icd9:789.00"}}, {"pk": 104, "model": "conf.reportabledx_code", "fields": {"notes": "", "condition": "hepatitis_b:acute", "dx_code": "icd9:789.01"}}, {"pk": 105, "model": "conf.reportabledx_code", "fields": {"notes": "", "condition": "hepatitis_b:acute", "dx_code": "icd9:789.02"}}, {"pk": 106, "model": "conf.reportabledx_code", "fields": {"notes": "", "condition": "hepatitis_b:acute", "dx_code": "icd9:789.03"}}, {"pk": 107, "model": "conf.reportabledx_code", "fields": {"notes": "", "condition": "hepatitis_b:acute", "dx_code": "icd9:789.04"}}, {"pk": 108, "model": "conf.reportabledx_code", "fields": {"notes": "", "condition": "hepatitis_b:acute", "dx_code": "icd9:789.05"}}, {"pk": 109, "model": "conf.reportabledx_code", "fields": {"notes": "", "condition": "hepatitis_b:acute", "dx_code": "icd9:789.06"}}, {"pk": 110, "model": "conf.reportabledx_code", "fields": {"notes": "", "condition": "hepatitis_b:acute", "dx_code": "icd9:789.07"}}, {"pk": 111, "model": "conf.reportabledx_code", "fields": {"notes": "", "condition": "hepatitis_b:acute", "dx_code": "icd9:789.09"}}, {"pk": 112, "model": "conf.reportabledx_code", "fields": {"notes": "", "condition": "hepatitis_c:acute", "dx_code": "icd9:782.4"}}, {"pk": 113, "model": "conf.reportabledx_code", "fields": {"notes": "", "condition": "hepatitis_c:acute", "dx_code": "icd9:783.0"}}, {"pk": 114, "model": "conf.reportabledx_code", "fields": {"notes": "", "condition": "hepatitis_c:acute", "dx_code": "icd9:780.79"}}, {"pk": 115, "model": "conf.reportabledx_code", "fields": {"notes": "", "condition": "hepatitis_c:acute", "dx_code": "icd9:787.01"}}, {"pk": 116, "model": "conf.reportabledx_code", "fields": {"notes": "", "condition": "hepatitis_c:acute", "dx_code": "icd9:787.02"}}, {"pk": 117, "model": "conf.reportabledx_code", "fields": {"notes": "", "condition": "hepatitis_c:acute", "dx_code": "icd9:787.03"}}, {"pk": 118, "model": "conf.reportabledx_code", "fields": {"notes": "", "condition": "hepatitis_c:acute", "dx_code": "icd9:787.91"}}, {"pk": 119, "model": "conf.reportabledx_code", "fields": {"notes": "", "condition": "hepatitis_c:acute", "dx_code": "icd9:789.0"}}, {"pk": 120, "model": "conf.reportabledx_code", "fields": {"notes": "", "condition": "hepatitis_c:acute", "dx_code": "icd9:789.00"}}, {"pk": 121, "model": "conf.reportabledx_code", "fields": {"notes": "", "condition": "hepatitis_c:acute", "dx_code": "icd9:789.01"}}, {"pk": 122, "model": "conf.reportabledx_code", "fields": {"notes": "", "condition": "hepatitis_c:acute", "dx_code": "icd9:789.02"}}, {"pk": 123, "model": "conf.reportabledx_code", "fields": {"notes": "", "condition": "hepatitis_c:acute", "dx_code": "icd9:789.03"}}, {"pk": 124, "model": "conf.reportabledx_code", "fields": {"notes": "", "condition": "hepatitis_c:acute", "dx_code": "icd9:789.04"}}, {"pk": 125, "model": "conf.reportabledx_code", "fields": {"notes": "", "condition": "hepatitis_c:acute", "dx_code": "icd9:789.05"}}, {"pk": 126, "model": "conf.reportabledx_code", "fields": {"notes": "", "condition": "hepatitis_c:acute", "dx_code": "icd9:789.06"}}, {"pk": 127, "model": "conf.reportabledx_code", "fields": {"notes": "", "condition": "hepatitis_c:acute", "dx_code": "icd9:789.07"}}, {"pk": 128, "model": "conf.reportabledx_code", "fields": {"notes": "", "condition": "hepatitis_c:acute", "dx_code": "icd9:789.09"}}, {"pk": 129, "model": "conf.reportabledx_code", "fields": {"notes": "", "condition": "chlamydia", "dx_code": "icd9:780.60"}}, {"pk": 131, "model": "conf.reportabledx_code", "fields": {"notes": "", "condition": "hepatitis_a:acute", "dx_code": "icd9:780.60"}}, {"pk": 133, "model": "conf.reportabledx_code", "fields": {"notes": "", "condition": "hepatitis_c:acute", "dx_code": "icd9:780.60"}}, {"pk": 130, "model": "conf.reportabledx_code", "fields": {"notes": "", "condition": "gonorrhea", "dx_code": "icd9:780.60"}}, {"pk": 132, "model": "conf.reportabledx_code", "fields": {"notes": "", "condition": "hepatitis_b:acute", "dx_code": "icd9:780.60"}}, {"pk": 134, "model": "conf.reportabledx_code", "fields": {"notes": "", "condition": "tuberculosis", "dx_code": "icd9:780.60"}}, {"pk": 17, "model": "conf.reportabledx_code", "fields": {"notes": "", "condition": "gonorrhea", "dx_code": "icd9:788.7"}}, {"pk": 18, "model": "conf.reportabledx_code", "fields": {"notes": "", "condition": "gonorrhea", "dx_code": "icd9:099.40"}}, {"pk": 19, "model": "conf.reportabledx_code", "fields": {"notes": "", "condition": "gonorrhea", "dx_code": "icd9:597.80"}}, {"pk": 20, "model": "conf.reportabledx_code", "fields": {"notes": "", "condition": "gonorrhea", "dx_code": "icd9:780.6"}}, {"pk": 21, "model": "conf.reportabledx_code", "fields": {"notes": "", "condition": "gonorrhea", "dx_code": "icd9:616.0"}}, {"pk": 22, "model": "conf.reportabledx_code", "fields": {"notes": "", "condition": "gonorrhea", "dx_code": "icd9:616.10"}}, {"pk": 23, "model": "conf.reportabledx_code", "fields": {"notes": "", "condition": "gonorrhea", "dx_code": "icd9:623.5"}}, {"pk": 24, "model": "conf.reportabledx_code", "fields": {"notes": "", "condition": "gonorrhea", "dx_code": "icd9:789.07"}}, {"pk": 25, "model": "conf.reportabledx_code", "fields": {"notes": "", "condition": "gonorrhea", "dx_code": "icd9:789.04"}}, {"pk": 26, "model": "conf.reportabledx_code", "fields": {"notes": "", "condition": "gonorrhea", "dx_code": "icd9:789.09"}}, {"pk": 27, "model": "conf.reportabledx_code", "fields": {"notes": "", "condition": "gonorrhea", "dx_code": "icd9:789.03"}}, {"pk": 28, "model": "conf.reportabledx_code", "fields": {"notes": "", "condition": "gonorrhea", "dx_code": "icd9:789.00"}}, {"pk": 29, "model": "conf.reportabledx_code", "fields": {"notes": "", "condition": "syphilis", "dx_code": "icd9:091.0"}}, {"pk": 30, "model": "conf.reportabledx_code", "fields": {"notes": "", "condition": "syphilis", "dx_code": "icd9:091.1"}}, {"pk": 31, "model": "conf.reportabledx_code", "fields": {"notes": "", "condition": "syphilis", "dx_code": "icd9:091.2"}}, {"pk": 32, "model": "conf.reportabledx_code", "fields": {"notes": "", "condition": "syphilis", "dx_code": "icd9:091.3"}}, {"pk": 33, "model": "conf.reportabledx_code", "fields": {"notes": "", "condition": "syphilis", "dx_code": "icd9:091.4"}}, {"pk": 34, "model": "conf.reportabledx_code", "fields": {"notes": "", "condition": "syphilis", "dx_code": "icd9:091.5"}}, {"pk": 35, "model": "conf.reportabledx_code", "fields": {"notes": "", "condition": "syphilis", "dx_code": "icd9:091.6"}}, {"pk": 36, "model": "conf.reportabledx_code", "fields": {"notes": "", "condition": "syphilis", "dx_code": "icd9:091.7"}}, {"pk": 37, "model": "conf.reportabledx_code", "fields": {"notes": "", "condition": "syphilis", "dx_code": "icd9:091.8"}}, {"pk": 38, "model": "conf.reportabledx_code", "fields": {"notes": "", "condition": "syphilis", "dx_code": "icd9:091.9"}}, {"pk": 39, "model": "conf.reportabledx_code", "fields": {"notes": "", "condition": "syphilis", "dx_code": "icd9:092.0"}}, {"pk": 40, "model": "conf.reportabledx_code", "fields": {"notes": "", "condition": "syphilis", "dx_code": "icd9:092.9"}}, {"pk": 41, "model": "conf.reportabledx_code", "fields": {"notes": "", "condition": "syphilis", "dx_code": "icd9:096"}}, {"pk": 42, "model": "conf.reportabledx_code", "fields": {"notes": "", "condition": "syphilis", "dx_code": "icd9:094"}}, {"pk": 166, "model": "conf.reportabledx_code", "fields": {"notes": "", "condition": "syphilis", "dx_code": "icd9:095.2"}}, {"pk": 169, "model": "conf.reportabledx_code", "fields": {"notes": "", "condition": "syphilis", "dx_code": "icd9:095.5"}}, {"pk": 172, "model": "conf.reportabledx_code", "fields": {"notes": "", "condition": "syphilis", "dx_code": "icd9:095.8"}}, {"pk": 175, "model": "conf.reportabledx_code", "fields": {"notes": "", "condition": "syphilis", "dx_code": "icd9:090.9"}}, {"pk": 178, "model": "conf.reportabledx_code", "fields": {"notes": "", "condition": "syphilis", "dx_code": "icd9:090.5"}}, {"pk": 181, "model": "conf.reportabledx_code", "fields": {"notes": "", "condition": "syphilis", "dx_code": "icd9:090.40"}}, {"pk": 184, "model": "conf.reportabledx_code", "fields": {"notes": "", "condition": "syphilis", "dx_code": "icd9:090.4"}}, {"pk": 187, "model": "conf.reportabledx_code", "fields": {"notes": "", "condition": "syphilis", "dx_code": "icd9:090.1"}}, {"pk": 190, "model": "conf.reportabledx_code", "fields": {"notes": "", "condition": "lyme", "dx_code": "icd9:711.82"}}, {"pk": 193, "model": "conf.reportabledx_code", "fields": {"notes": "", "condition": "lyme", "dx_code": "icd9:711.85"}}, {"pk": 196, "model": "conf.reportabledx_code", "fields": {"notes": "", "condition": "lyme", "dx_code": "icd9:711.88"}}, {"pk": 199, "model": "conf.reportabledx_code", "fields": {"notes": "", "condition": "syphilis", "dx_code": "icd9:095"}}, {"pk": 202, "model": "conf.reportabledx_code", "fields": {"notes": "", "condition": "hepatitis_c:acute", "dx_code": "icd9:787.0"}},
{"pk": 2, "model": "conf.reportablelab", "fields": {"notes": "testing for reporting ", "native_name": "gonorrhea", "condition": "chlamydia"}}, {"pk": 3, "model": "conf.reportablelab", "fields": {"notes": "", "native_name": "chlamydia", "condition": "gonorrhea"}}, {"pk": 4, "model": "conf.reportablelab", "fields": {"notes": "", "native_name": "Heb B Surface AG", "condition": "hepatitis_a:acute"}}, {"pk": 5, "model": "conf.reportablelab", "fields": {"notes": "", "native_name": "Hep C AB", "condition": "hepatitis_b:acute"}}, {"pk": 6, "model": "conf.reportablelab", "fields": {"notes": "", "native_name": "Hep E AB", "condition": "hepatitis_b:acute"}}, {"pk": 7, "model": "conf.reportablelab", "fields": {"notes": "", "native_name": "Hep A IGM", "condition": "hepatitis_b:acute"}}, {"pk": 8, "model": "conf.reportablelab", "fields": {"notes": "", "native_name": "Hep A IGM", "condition": "hepatitis_c:acute"}}, {"pk": 9, "model": "conf.reportablelab", "fields": {"notes": "", "native_name": "Heb B Surface AG", "condition": "hepatitis_c:acute"}}, {"pk": 10, "model": "conf.reportablelab", "fields": {"notes": "", "native_name": "Hep C AB", "condition": "hepatitis_a:acute"}},
{"pk": 61, "model": "conf.reportablemedication", "fields": {"drug_name": "ceftriaxone", "notes": "", "condition": "lyme"}}, {"pk": 62, "model": "conf.reportablemedication", "fields": {"drug_name": "ceftriaxone", "notes": "", "condition": "syphilis"}}, {"pk": 63, "model": "conf.reportablemedication", "fields": {"drug_name": "pen g", "notes": "", "condition": "syphilis"}}, {"pk": 2, "model": "conf.reportablemedication", "fields": {"drug_name": "azithromycin", "notes": "", "condition": "chlamydia"}}, {"pk": 3, "model": "conf.reportablemedication", "fields": {"drug_name": "levofloxacin", "notes": "", "condition": "chlamydia"}}, {"pk": 4, "model": "conf.reportablemedication", "fields": {"drug_name": "ofloxacin", "notes": "", "condition": "chlamydia"}}, {"pk": 5, "model": "conf.reportablemedication", "fields": {"drug_name": "ciprofloxacin", "notes": "", "condition": "chlamydia"}}, {"pk": 6, "model": "conf.reportablemedication", "fields": {"drug_name": "doxycycline", "notes": "", "condition": "chlamydia"}}, {"pk": 7, "model": "conf.reportablemedication", "fields": {"drug_name": "eryrthromycin", "notes": "", "condition": "chlamydia"}}, {"pk": 8, "model": "conf.reportablemedication", "fields": {"drug_name": "amoxicillin", "notes": "", "condition": "chlamydia"}}, {"pk": 9, "model": "conf.reportablemedication", "fields": {"drug_name": "EES", "notes": "", "condition": "chlamydia"}}, {"pk": 10, "model": "conf.reportablemedication", "fields": {"drug_name": "amoxicillin", "notes": "", "condition": "gonorrhea"}}, {"pk": 11, "model": "conf.reportablemedication", "fields": {"drug_name": "cefixime", "notes": "", "condition": "gonorrhea"}}, {"pk": 12, "model": "conf.reportablemedication", "fields": {"drug_name": "cefotaxime", "notes": "", "condition": "gonorrhea"}}, {"pk": 13, "model": "conf.reportablemedication", "fields": {"drug_name": "cefpodoxime", "notes": "", "condition": "gonorrhea"}}, {"pk": 14, "model": "conf.reportablemedication", "fields": {"drug_name": "ceftizoxime", "notes": "", "condition": "gonorrhea"}}, {"pk": 15, "model": "conf.reportablemedication", "fields": {"drug_name": "ceftriaxone", "notes": "", "condition": "gonorrhea"}}, {"pk": 16, "model": "conf.reportablemedication", "fields": {"drug_name": "ciprofloxacin", "notes": "", "condition": "gonorrhea"}}, {"pk": 17, "model": "conf.reportablemedication", "fields": {"drug_name": "gatifloxacin", "notes": "", "condition": "gonorrhea"}}, {"pk": 18, "model": "conf.reportablemedication", "fields": {"drug_name": "levofloxacin", "notes": "", "condition": "gonorrhea"}}, {"pk": 19, "model": "conf.reportablemedication", "fields": {"drug_name": "ofloxacin", "notes": "", "condition": "gonorrhea"}}, {"pk": 20, "model": "conf.reportablemedication", "fields": {"drug_name": "spectinomycin", "notes": "", "condition": "gonorrhea"}}, {"pk": 21, "model": "conf.reportablemedication", "fields": {"drug_name": "moxifloxacin", "notes": "", "condition": "gonorrhea"}}, {"pk": 22, "model": "conf.reportablemedication", "fields": {"drug_name": "Penicillin G", "notes": "", "condition": "syphilis"}}, {"pk": 23, "model": "conf.reportablemedication", "fields": {"drug_name": "Doxycycline", "notes": "", "condition": "syphilis"}}, {"pk": 24, "model": "conf.reportablemedication", "fields": {"drug_name": "ampicillin-sulbactam", "notes": "", "condition": "pelvic_inflammatory_disease"}}, {"pk": 25, "model": "conf.reportablemedication", "fields": {"drug_name": "amoxicillin-clavulinic acid", "notes": "", "condition": "pelvic_inflammatory_disease"}}, {"pk": 26, "model": "conf.reportablemedication", "fields": {"drug_name": "clindamycin", "notes": "", "condition": "pelvic_inflammatory_disease"}}, {"pk": 27, "model": "conf.reportablemedication", "fields": {"drug_name": "levofloxacin", "notes": "", "condition": "pelvic_inflammatory_disease"}}, {"pk": 28, "model": "conf.reportablemedication", "fields": {"drug_name": "ciprofloxacin", "notes": "", "condition": "pelvic_inflammatory_disease"}}, {"pk": 29, "model": "conf.reportablemedication", "fields": {"drug_name": "ofloxacin", "notes": "", "condition": "pelvic_inflammatory_disease"}}, {"pk": 30, "model": "conf.reportablemedication", "fields": {"drug_name": "cefotetan", "notes": "", "condition": "pelvic_inflammatory_disease"}}, {"pk": 31, "model": "conf.reportablemedication", "fields": {"drug_name": "cefoxitin", "notes": "", "condition": "pelvic_inflammatory_disease"}}, {"pk": 32, "model": "conf.reportablemedication", "fields": {"drug_name": "ceftriaxone", "notes": "", "condition": "pelvic_inflammatory_disease"}}, {"pk": 33, "model": "conf.reportablemedication", "fields": {"drug_name": "cefotaxime", "notes": "", "condition": "pelvic_inflammatory_disease"}}, {"pk": 34, "model": "conf.reportablemedication", "fields": {"drug_name": "cefitizoxine", "notes": "", "condition": "pelvic_inflammatory_disease"}}, {"pk": 35, "model": "conf.reportablemedication", "fields": {"drug_name": "doxycycline", "notes": "", "condition": "pelvic_inflammatory_disease"}}, {"pk": 36, "model": "conf.reportablemedication", "fields": {"drug_name": "gentamicin", "notes": "", "condition": "pelvic_inflammatory_disease"}}, {"pk": 37, "model": "conf.reportablemedication", "fields": {"drug_name": "metronidazole", "notes": "", "condition": "pelvic_inflammatory_disease"}}, {"pk": 38, "model": "conf.reportablemedication", "fields": {"drug_name": "azithromycin", "notes": "", "condition": "pelvic_inflammatory_disease"}}, {"pk": 39, "model": "conf.reportablemedication", "fields": {"drug_name": "Isoniazid", "notes": "", "condition": "tuberculosis"}}, {"pk": 40, "model": "conf.reportablemedication", "fields": {"drug_name": "Ethambutol", "notes": "", "condition": "tuberculosis"}}, {"pk": 41, "model": "conf.reportablemedication", "fields": {"drug_name": "Rifampin", "notes": "", "condition": "tuberculosis"}}, {"pk": 42, "model": "conf.reportablemedication", "fields": {"drug_name": "Rifabutin", "notes": "", "condition": "tuberculosis"}}, {"pk": 43, "model": "conf.reportablemedication", "fields": {"drug_name": "Rifapentine", "notes": "", "condition": "tuberculosis"}}, {"pk": 44, "model": "conf.reportablemedication", "fields": {"drug_name": "Pyrazinamide", "notes": "", "condition": "tuberculosis"}}, {"pk": 45, "model": "conf.reportablemedication", "fields": {"drug_name": "Streptomycin", "notes": "", "condition": "tuberculosis"}}, {"pk": 46, "model": "conf.reportablemedication", "fields": {"drug_name": "Para-aminosalicyclic acid", "notes": "", "condition": "tuberculosis"}}, {"pk": 47, "model": "conf.reportablemedication", "fields": {"drug_name": "Kanamycin", "notes": "", "condition": "tuberculosis"}}, {"pk": 48, "model": "conf.reportablemedication", "fields": {"drug_name": "Capreomycin", "notes": "", "condition": "tuberculosis"}}, {"pk": 49, "model": "conf.reportablemedication", "fields": {"drug_name": "Cycloserine", "notes": "", "condition": "tuberculosis"}}, {"pk": 50, "model": "conf.reportablemedication", "fields": {"drug_name": "Ethionamide", "notes": "", "condition": "tuberculosis"}}, {"pk": 51, "model": "conf.reportablemedication", "fields": {"drug_name": "Levofloxacin", "notes": "", "condition": "tuberculosis"}}, {"pk": 52, "model": "conf.reportablemedication", "fields": {"drug_name": "Ciprofloxacin", "notes": "", "condition": "tuberculosis"}}, {"pk": 53, "model": "conf.reportablemedication", "fields": {"drug_name": "Moxifloxacin", "notes": "", "condition": "tuberculosis"}}, {"pk": 54, "model": "conf.reportablemedication", "fields": {"drug_name": "Gatifloxacin", "notes": "", "condition": "tuberculosis"}}, {"pk": 55, "model": "conf.reportablemedication", "fields": {"drug_name": "Azithromycin", "notes": "", "condition": "tuberculosis"}}, {"pk": 64, "model": "conf.reportablemedication", "fields": {"drug_name": "PZA", "notes": "", "condition": "tuberculosis"}}, {"pk": 56, "model": "conf.reportablemedication", "fields": {"drug_name": "doxycycline", "notes": "", "condition": "lyme"}}, {"pk": 57, "model": "conf.reportablemedication", "fields": {"drug_name": "amoxicillin", "notes": "", "condition": "lyme"}}, {"pk": 58, "model": "conf.reportablemedication", "fields": {"drug_name": "cefuroxime", "notes": "", "condition": "lyme"}}, {"pk": 59, "model": "conf.reportablemedication", "fields": {"drug_name": "ceftriaxone", "notes": "", "condition": "tuberculosis"}}, {"pk": 60, "model": "conf.reportablemedication", "fields": {"drug_name": "cefotaxime", "notes": "", "condition": "lyme"}},
{"pk": "EPT TREATMENT FOR PARTNER: DECLINED", "model": "conf.extended_variablesmap", "fields": {"native_string": "355804--"}}, {"pk": "EPT TREATMENT FOR PARTNER: FLOOR MEDS DISPENSED", "model": "conf.extended_variablesmap", "fields": {"native_string": "355805--"}}, {"pk": "EPT TREATMENT FOR PARTNER: PRINT RX MANUAL FAX", "model": "conf.extended_variablesmap", "fields": {"native_string": "355806--"}}
]
